[gd_scene format=2]

[node name="desk" type="Spatial"]

[node name="CSGBox" type="CSGBox" parent="."]
transform = Transform( 1, 0, 0, 0, 1, 0, 0, 0, 1, 0, 1.24885, 0 )
width = 1.85183
height = 0.031837
depth = 3.83565

[node name="CSGBox2" type="CSGBox" parent="."]
transform = Transform( 1, 0, 0, 0, 1, 0, 0, 0, 1, 0, 1.18198, 0 )
width = 1.71545
height = 0.10192
depth = 3.78273

[node name="CSGBox4" type="CSGBox" parent="."]
transform = Transform( 1, 0, 0, 0, 1, 0, 0, 0, 1, -0.771685, 0.543166, 1.69576 )
width = 0.0963121
height = 1.16723
depth = 0.102607

[node name="CSGBox5" type="CSGBox" parent="."]
transform = Transform( 1, 0, 0, 0, 1, 0, 0, 0, 1, -0.784845, 0.544762, -1.81282 )
width = 0.0963121
height = 1.16723
depth = 0.102607

[node name="CSGBox6" type="CSGBox" parent="."]
transform = Transform( 1, 0, 0, 0, 1, 0, 0, 0, 1, 0.785506, 0.550808, -1.76219 )
width = 0.0963121
height = 1.16723
depth = 0.102607

[node name="CSGBox3" type="CSGBox" parent="."]
transform = Transform( 1, 0, 0, 0, 1, 0, 0, 0, 1, 0.798666, 0.549212, 1.74639 )
width = 0.0963121
height = 1.16723
depth = 0.102607
